{
  "name": "Mitts-Development",
  "outputfilename": "Mitts-Development",
  "frontend:install": "npm install",
  "frontend:build": "npm run build",
  "frontend:dev:watcher": "npm run dev",
  "frontend:dev:serverUrl": "http://localhost:3000",
  "author": {
    "name": "strawberria",
    "email": "N/A"
  }
}
